DF	DF	2014-12-31	34
DF	DF	2015-12-31	50
DF	DF	2016-12-31	43
DF	DF	2017-12-31	32
DF	DF	2018-12-31	28
DF	DF	2019-12-31	31
DF	DF	2020-12-31	22
DF	DF	2021-12-31	26
DF	DF	2022-09-05	9
DF XL	DF XL	2014-12-31	1
DF XL	DF XL	2015-12-31	69
DF XL	DF XL	2016-12-31	49
DF XL	DF XL	2017-12-31	47
DF XL	DF XL	2018-12-31	37
DF XL	DF XL	2019-12-31	62
DF XL	DF XL	2020-12-31	46
DF XL	DF XL	2021-12-31	66
DF XL	DF XL	2022-09-05	31
Quest	Quest 20"	2000-12-31	15
Quest	Quest 20"	2001-12-31	28
Quest	Quest 20"	2002-12-31	29
Quest	Quest 20"	2003-12-31	17
Quest	Quest 20"	2004-12-31	29
Quest	Quest 20"	2005-12-31	8
Quest	Quest 20"	2012-12-31	1
Quest	Quest GFK	2005-12-31	13
Quest	Quest GFK	2006-12-31	41
Quest	Quest GFK	2007-12-31	43
Quest	Quest GFK	2008-12-31	67
Quest	Quest GFK	2009-12-31	86
Quest	Quest GFK	2010-12-31	73
Quest	Quest GFK	2011-12-31	55
Quest	Quest GFK	2012-12-31	35
Quest	Quest GFK	2013-12-31	35
Quest	Quest GFK	2014-12-31	13
Quest	Quest GFK	2015-12-31	14
Quest	Quest GFK	2016-12-31	5
Quest	Quest GFK	2018-12-31	2
Quest	Quest GFK	2019-12-31	1
Quest	Quest GFK	2020-12-31	1
Quest	Quest CFK	2010-12-31	4
Quest	Quest CFK	2011-12-31	59
Quest	Quest CFK	2012-12-31	27
Quest	Quest CFK	2013-12-31	39
Quest	Quest CFK	2014-12-31	26
Quest	Quest CFK	2015-12-31	22
Quest	Quest CFK	2016-12-31	21
Quest	Quest CFK	2017-12-31	16
Quest	Quest CFK	2018-12-31	16
Quest	Quest CFK	2019-12-31	19
Quest	Quest CFK	2020-12-31	13
Quest	Quest CFK	2021-12-31	4
Quest	Quest CFK	2022-09-05	6
Quest XS	Quest XS GFK	2011-12-31	1
Quest XS	Quest XS GFK	2012-12-31	14
Quest XS	Quest XS GFK	2013-12-31	21
Quest XS	Quest XS GFK	2014-12-31	7
Quest XS	Quest XS GFK	2015-12-31	11
Quest XS	Quest XS GFK	2016-12-31	2
Quest XS	Quest XS GFK	2017-12-31	3
Quest XS	Quest XS CFK	2012-12-31	32
Quest XS	Quest XS CFK	2013-12-31	23
Quest XS	Quest XS CFK	2014-12-31	11
Quest XS	Quest XS CFK	2015-12-31	13
Quest XS	Quest XS CFK	2016-12-31	15
Quest XS	Quest XS CFK	2017-12-31	9
Quest XS	Quest XS CFK	2018-12-31	5
Quest XS	Quest XS CFK	2019-12-31	6
Quest XS	Quest XS CFK	2020-12-31	5
Quest XS	Quest XS CFK	2021-12-31	1
Quest XS	Quest XS CFK	2022-09-05	2
Strada	Strada GFK	2009-12-31	8
Strada	Strada GFK	2010-12-31	42
Strada	Strada GFK	2011-12-31	28
Strada	Strada GFK	2012-12-31	24
Strada	Strada GFK	2013-12-31	28
Strada	Strada GFK	2014-12-31	22
Strada	Strada GFK	2015-12-31	18
Strada	Strada GFK	2016-12-31	13
Strada	Strada GFK	2017-12-31	7
Strada	Strada GFK	2018-12-31	5
Strada	Strada GFK	2019-12-31	6
Strada	Strada CFK	2010-12-31	9
Strada	Strada CFK	2011-12-31	11
Strada	Strada CFK	2012-12-31	9
Strada	Strada CFK	2013-12-31	20
Strada	Strada CFK	2014-12-31	10
Strada	Strada CFK	2015-12-31	6
Strada	Strada CFK	2016-12-31	10
Strada	Strada CFK	2017-12-31	12
Strada	Strada CFK	2018-12-31	6
Strada	Strada CFK	2019-12-31	8
Strada	Strada CFK	2020-12-31	6
Strada	Strada CFK	2021-12-31	11
Strada	Strada CFK	2022-09-05	2
Quattrovelo	Quattrovelo	2015-12-31	1
Quattrovelo	Quattrovelo	2016-12-31	16
Quattrovelo	Quattrovelo	2017-12-31	43
Quattrovelo	Quattrovelo	2018-12-31	47
Quattrovelo	Quattrovelo	2019-12-31	43
Quattrovelo	Quattrovelo	2020-12-31	35
Quattrovelo	Quattrovelo	2021-12-31	35
Quattrovelo	Quattrovelo	2022-09-05	15
Quattrovelo	Quattrovelo+	2017-12-31	8
Quattrovelo	Quattrovelo+	2018-12-31	9
Quattrovelo	Quattrovelo+	2019-12-31	14
Quattrovelo	Quattrovelo+	2020-12-31	23
Quattrovelo	Quattrovelo+	2021-12-31	18
Quattrovelo	Quattrovelo+	2022-09-05	5
