digraph G {
	graph [ fontnames="svg" ];

	center="true";
	charset="utf8";
	outputorder="edgesfirst";
	ratio=1.4;
	splines="true";

	node [ shape="plaintext" fontname="sans" ];

	//// TIMELINE

	node [ shape="box" style="rounded" margin="0.15 0.15" fontname="sans" ];

	leitra_rasmussen [ label=<<b>Leitra</b> (1980)<br/>Carl Georg Rasmussen<br/>entwickelt die <i>Leitra</i>> ];
	leitra_bikerevolution [ label=<<b>Bike Revolution</b> (2008)<br/>Thomas Seide übernimmt<br/>die <i>Leitra</i>, entwickelt<br/><i>Leitra Avancee</i>> ];
	verhees_alleweder [ label=<<b>Bart Verhees</b> (1986)<br/>entwickelt das<br/>Ur-<i>Alleweder</i> (A1)> ];
	flevo_vrielink [ label=<<b>Flevobike</b><br/>Johan Vrielink entwickelt<br/><i>Alleweder A2</i><br/>(FAW = Flevo-Alleweder)> ];
	flevo_bausatz [ label=<<b>Flevobike</b> (1992)<br/>verkauft <i>Alleweder A2</i><br/>als Bausatz> ];
	verhees_alleweder_verkauf [ label=<<b>Bart Verhees</b> (1992)<br/>verkauft <i>Alleweder</i><br/>fertig gebaut> ];
	flevo_allert_theo_ymte [ label=<<b>Flevobike</b> (1994)<br/>Allert Jacobs, Theo van<br/>Andel, Ymte Sijbrandij<br/>arbeiten bei Flevobike> ];
	htempelman [ label=<<b>Harm Tempelman</b><br/>liefert Komponenten<br/>an Flevobike> ];
	flevo_c_alleweder [ label=<<b>Flevobike</b> (1996)<br/>Allert Jacobs<br/>entwickelt <i>C-Alleweder</i>> ];
	tempelman_limit [ label=<<b>Tempelman</b> (1999)<br/>übernimmt das <i>C-Alleweder</i><br/>Umbenennung in <i>Limit</i>> ];
	flevo_allert_quest [ label=<<b>Flevobike</b><br/>Allert Jacobs<br/>entwickelt <i>Quest</i>> ];
	walle_tempelman [ label=<<b>Frederik van de Walle</b><br/>Praktikum bei<br/>Harm Tempelman<br/>lernt <i>Quest</i> kennen> ];
	walle_waw [ label=<<b>Frederik van de Walle</b><br/><b>Dries Callebout</b><br/>entwickeln <i>WAW</i>> ];
	cab_bike [ label=<<b>Cab-Bike</b> (1996)<br/>Reinhold Schwemmer, German<br/>Eslava und Rüdiger Licher<br/>beginnen mit Entwicklung<br/>des <i>Cab-Bike</i>> ];
	cab_bike_alleweder [ label=<<b>Cab-Bike</b> (1998)<br/>Neukonstruktion <i>Cab-Bike</i>:<br/>Unterteil = <i>C-Alleweder</i>> ];
	cab_bike_krieger [ label=<<b>Cab-Bike</b> (2004)<br/>Bernd Krieger<br/>übernimmt Firma> ];
	cab_bike_ende [ label=<<b>Cab-Bike</b> (2012)<br/>Produktion eingestellt,<br/>Firma löst sich auf> ];
	js_fiets [ label=<<b>J&amp;S Fietsdiensten</b> (1999)<br/>Allert &amp; Ymte gründen Firma<br/>produzieren <i>Quest</i>> ];
	velomobiel_quest [ label=<<b>Velomobiel</b> (2001)<br/><i>J&amp;S Fietsdiensten</i><br/>umbenannt zu <i>Velomobiel</i>> ];
	velomobiel_mango [ label=<<b>Velomobiel</b> (2002)<br/><i>Mango</i> als kleineres<br/><i>Quest</i> entwickelt> ];
	flevo_alleweder_ende [ label=<<b>Flevobike</b> (1999)<br/>beendet Produktion<br/>des <i>Alleweder</i>> ];
	flevo_versatile [ label=<<b>Flevobike</b> (2000)<br/>Arjan, André und<br/>Erwin Vrielink<br/>entwickeln <i>Versatile</i>> ];
	usa_alleweder [ label=<<b>David Eggleston</b> (2003)<br/>lernt Alleweder auf<br/>Cycle Vision kennen,<br/>wird Händler in USA,<br/>produziert <i>FAW+</i><br/>= verbessertes <i>FAW</i><br/>als Bausatz und komplett> ];
	usa_alleweder_ende [ label=<<b>David Eggleston</b> (2019)<br/>beendet Produktion<br/>des <i>FAW+</i>> ];
	tempelman_limit_ende [ label=<<b>Tempelman</b> (2002)<br/>beendet Produktion<br/>des <i>Limit</i>> ];
	flevo_tempelman [ label=<<b>Tempelman</b><br/>Harm, Dineke,<br/>Gerrit Tempelman<br/>übernehmen Produkte<br/>von Flevobike> ];
	tempelman_versatile [ label=<<b>Gerrit Tempelman</b> (2004)<br/>beginnt Produktion<br/>des <i>Versatile</i>> ];
	tempelman_versatile_ende [ label=<<b>Gerrit Tempelman</b> (2009)<br/>beendet Produktion<br/>des <i>Versatile</i>> ];
	flevo_orca [ label=<<b>Flevobike</b> (2011)<br/>übernimmt das <i>Versatile</i>,<br/>überarbeitete Version<br/>heißt <i>Orca</i>> ];
	velodk_orca [ label=<<b>Velomobilcenter.dk</b> (2015)<br/>übernimmt Endmontage<br/>des <i>Orca</i>> ];
	flevo_orca_ro [ label=<<b>Flevobike</b> (2017)<br/>Fertigung des <i>Orca</i><br/>durch Velomobiel.ro<br/>in Rumänien> ];
	flevo_orca_ende [ label=<<b>Flevobike</b> (2019)<br/>beendet Produktion<br/>des <i>Orca</i>> ];
	kaczmarek_karosserien [ label=<<b>Maciej Kaczmarek</b><br/>produziert Karosserien<br/>für <i>Cab-Bike</i>, <i>Aerorider</i>,<br/><i>Sunrider 1/2</i> und<br/><i>Alleweder A6/A7</i>> ];
	kaczmarek_road_hawk [ label=<<b>Maciej Kaczmarek</b><br/>entwickelt <i>Road Hawk</i><br/>(früher <i>Car Bike</i>)> ];
	cab_bike_pima [ label=<<b>PIMA Velo Bike</b> (2015)<br/>übernimmt das <i>Cab-Bike</i><br/>Maciej Kaczmarek entwickelt<br/><i>Cab-Bike Hawk</i> mit<br/>Oberteil des <i>Road Hawk</i>> ];
	pluimers_alleweder [ label=<<b>Nico Pluimers</b> (2000)<br/>lizenziert <i>Alleweder</i><br/>von Bart Verhees,<br/>produziert 1 Jahr lang,<br/>Fertigung bei Alligt> ];
	alligt_alleweder_a3 [ label=<<b>Alligt</b> (2001)<br/>lizenziert <i>Alleweder</i><br/>von Bart Verhees,<br/>übernimmt Lagerbestand<br/>von Nico Pluimers,<br/>Entwicklung des <i>A3</i>:<br/>größerer Einstieg,<br/>26&quot;-Hinterrad> ];
	alligt_alleweder_a4 [ label=<<b>Alligt</b> (2006)<br/>übernimmt Rechte am<br/><i>Alleweder</i> komplett,<br/><i>A4</i>: 20&quot;-Hinterrad,<br/><i>A5</i>: verkürzte Version des <i>A4</i>> ];
	alligt_alleweder_a6 [ label=<<b>Alligt</b> (2008)<br/><i>Alleweder A6</i>:<br/>GFK-Karosserie<br/>statt Alu,<br/>Kooperation mit<br/>Akkurad> ];
	alligt_alleweder_a7 [ label=<<b>Alligt</b> (2010)<br/><i>Alleweder A7</i>:<br/>schmäler als <i>A6</i>,<br/>Einstieg wie Quest<br/>Produktion <i>A5</i> eingestellt> ];
	alligt_alleweder_a4_ende [ label=<<b>Alligt</b> (2020)<br/>Produktion <i>A4</i><br/>eingestellt> ];
	wijma_aerorider [ label=<<b>Gjalt Wijma</b> (1999)<br/>entwickelt <i>Aerorider</i><br/>als Student an der TU Delft<br/>mit Hilfe von <i>CC-Cycles</i>,<br/><i>Admoco</i> und <i>Optima</i>> ];
	aerorider_bv [ label=<<b>Aerorider</b> (2003)<br/>Gründung der Firma<br/><i>Aerorider BV</i><br/>durch Bart de Wert<br/><i>Aerorider</i> =<br/>eher Moped als Fahrrad> ];
	aerorider_sunrider [ label=<<b>Aerorider</b> (2007)<br/>Gründung der Firma<br/><i>Sunrider Cycles</i>> ];
	sunrider_sunrider [ label=<<b>Sunrider Cycles</b> (2008)<br/>Michiel Dreef<br/>entwickelt <i>Sunrider</i><br/>aus <i>Aerorider</i>-Unterteil> ];
	alligt_alleweder_a8_sunrider [ label=<<b>Alligt</b> (2012)<br/><i>Alleweder A8</i> = neue Alu-Version<br/>Alligt übernimmt <i>Sunrider</i>-Rechte<br/>+ TÜV-Abnahme + Lagerbestand> ];
	alligt_sunrider2 [ label=<<b>Alligt</b> (2013)<br/>Entwicklung <i>Sunrider 2</i><br/><i>Alleweder A9</i> = <i>Sunrider-2</i>-Bausatz<br/>Herstellung <i>A7</i> und <i>A8</i> eingestellt<br/>Herstellung <i>A4</i> und <i>A6</i> geht weiter> ];
	alligt_sunrider_ende [ label=<<b>Alligt</b> (2016)<br/>Ende der Produktion von<br/><i>Sunrider</i> und <i>Alleweder A9</i>> ];
	lohmeyer_a4_45 [ label=<<b>Lohmeyer<br/>Leichtfahrzeuge</b> (2003)<br/>Kooperation mit Alligt,<br/>45-km/h-Zulassung<br/>des <i>Alleweder</i>> ];
	lohmeyer_akkurad [ label=<<b>Akkurad</b> (2007)<br/>Umbenennung<br/>der Firma> ];
	akkurad_wechsel [ label=<<b>Akkurad</b> (2015)<br/>Wechsel des Besitzers> ];
	akkurad_a6 [ label=<<b>Akkurad</b><br/>übernimmt Rechte am<br/><i>Alleweder A6</i>> ];
	akkurad_galoppe [ label=<<b>Akkurad</b> (2022)<br/>entwickelt <i>GaloppE AZ</i><br/>auf Basis des <i>Alleweder A6</i>> ];
	fietser_waw [ label=<<b>Fietser.be</b> (2004)<br/>übernimmt <i>WAW</i>> ];
	katanga_waw [ label=<<b>Katanga</b> (2012)<br/>übernimmt <i>WAW</i><br/>einige Verbesserungen> ];
	katanga_waw2014 [ label=<<b>Katanga</b> (2014)<br/><i>WAW@2014</i>: Formen<br/>komplett neu,<br/>Kettentunnel ist neu,<br/>Lenkbrücke ist neu,<br/>Elektrik überarbeitet> ];
	katanga_waw2016 [ label=<<b>Katanga</b> (2016)<br/><i>WAW@2016</i>:<br/>neues Heck,<br/>2 neue Nasen,<br/>Lenkung verbessert,<br/>Hinterradfederung> ];
	lieben_mango [ label=<<b>Go-Mango</b> (2006)<br/>Harry Lieben übernimmt<br/>das <i>Mango</i>, gründet<br/>Go-Mango in Groningen> ];
	sinner_mango [ label=<<b>Sinner</b> (2007)<br/>übernimmt <i>Mango</i>,<br/>stellt Harry Lieben an,<br/>fertigt in Stadskanaal> ];
	sinner_mangoplus [ label=<<b>Sinner</b> (2009)<br/>entwickelt<br/><i>Mango Plus</i>> ];
	sinner_mangosport [ label=<<b>Sinner</b> (2010)<br/>entwickelt<br/><i>Mango Sport</i>> ];
	drymer_mango [ label=<<b>Drymer</b> (2014)<br/>übernimmt <i>Mango</i><br/>nach Insolvenz<br/>von Sinner> ];
	drymer_hilgo [ label=<<b>Drymer</b> (2017)<br/>entwickelt <i>Hilgo</i><br/>angeregt durch<br/>Detlef Hilgendorf> ];
	drymer_ende [ label=<<b>Drymer</b> (2022)<br/>Firma wird aufgelöst,<br/><i>Mango</i> und <i>Hilgo</i><br/>werden eingestellt> ];
	beyss_quest [ label=<<b>Beyss Leichtfahrzeuge</b><br/>baut Karosserien für<br/><i>Quest</i> und <i>Mango</i>> ];
	beyss_goone [ label=<<b>Beyss Leichtfahrzeuge</b><br/>entwickelt <i>Go-One</i>> ];
	velomobiel_quest26 [ label=<<b>Velomobiel</b> (2005)<br/><i>Quest</i> mit 26&quot;-Hinterrad> ];
	velomobiel_strada [ label=<<b>Velomobiel</b> (2007)<br/>entwickelt <i>Strada</i>> ];
	velomobiel_wijnen [ label=<<b>Velomobiel</b> (2008)<br/>Jan Wijnen wird angestellt<br/>wird später Miteigentümer> ];
	velomobiel_duoquest [ label=<<b>Velomobiel</b> (2009)<br/>Prototyp <i>DuoQuest</i>> ];
	velomobiel_carbon [ label=<<b>Velomobiel</b> (2010)<br/>Carbon-Versionen von<br/><i>Quest</i> und <i>Strada</i><br/>Fertigung: Beyss (DE)<br/>bzw. Peter Pawlik (SK)> ];
	velomobiel_quest_dfenn [ label=<<b>Velomobiel</b> (2011)<br/>Daniel Fenn verbessert<br/><i>Quest</i> mit Versteifungen> ];
	velomobiel_questxs [ label=<<b>Velomobiel</b> (2012)<br/>entwickelt <i>Quest XS</i>> ];
	velomobiel_strada_df [ label=<<b>Velomobiel</b> (2013)<br/>Prototyp <i>Strada DF</i><br/>(Daniel Fenn/Ymte Sijbrandij);<br/>CFK-Fertigung jetzt bei<br/>Velomobiel.ro (Rumänien)<br/>GFK weiterhin von Beyss> ];
	velomobiel_quattrovelo [ label=<<b>Velomobiel</b> (2015)<br/>entwickelt <i>Quattrovelo</i>,<br/>alle Modelle: Innegra,<br/>Lackierung statt Gelcoat> ];
	velomobiel_quattroveloplus [ label=<<b>Velomobiel</b> (2017)<br/>entwickelt <i>Quattrovelo+</i>> ];
	velomobiel_gfk_ende [ label=<<b>Velomobiel</b> (2019)<br/>Produktion GFK-Modelle<br/>eingestellt> ];
	velomobiel_snoek [ label=<<b>Velomobiel</b> (2021)<br/>entwickelt <i>Snoek</i>> ];
	velomobiel_snoekl_quatrevelo [ label=<<b>Velomobiel</b> (2022)<br/>entwickelt <i>Snoek L</i>;<br/><i>Quattrovelo</i> umbenannt<br/>zu <i>Quatrevelo</i>> ];
	velomobielro_dfenn [ label=<<b>Velomobiel.ro</b> (2013)<br/>Jan Wijnen baut Fertigung<br/>in Rumänien auf,<br/>mit Hilfe von Daniel Fenn> ];
	velomobielro [ label=<<b>Velomobiel.ro</b> (2015)<br/>Jan Wijnen übernimmt<br/>Anteile der Mitgründer> ];
	buckbesch_buelk_milan [ label=<<b>Jens Buckbesch</b> (2007)<br/>entwickelt <i>Milan (GT)</i><br/>Form von Eggert Bülk<br/>Komponenten von <i>Velomobiel</i>> ];
	raederwerk_milan_mk1 [ label=<<b>Räderwerk</b> (2008)<br/>Serienfertigung <i>Milan GT</i>> ];
	raederwerk_milansl_mk2 [ label=<<b>Räderwerk</b> (2010)<br/>Jens Buckbesch + Eggert Bülk<br/>entwickeln <i>Milan SL</i><br/>angeregt durch<br/>Christian von Ascheberg<br/>Verbesserung: <i>Milan GT MK2</i>> ];
	raederwerk_milansr [ label=<<b>Räderwerk</b> (2011)<br/>Jens Buckbesch + Eggert Bülk<br/>entwickeln <i>Milan SR</i><br/>für Rekordversuche> ];
	schleicher_milan [ label=<<b>Velomobiles.ca</b> (2012)<br/>Steve Schleicher beginnt<br/>Fertigung des <i>Milan</i><br/>in Maple Ridge/Kanada> ];
	raederwerk_milan42 [ label=<<b>Räderwerk</b> (2014)<br/>Jens Buckbesch + Eggert Bülk<br/>entwickeln Tandem <i>Milan 4.2</i><br/>vorerst Einzelstücke> ];
	raederwerk_milansl_mk3 [ label=<<b>Räderwerk</b> (2015)<br/><i>Milan SL MK3</i>> ];
	raederwerk_milansl_ro [ label=<<b>Räderwerk</b> (2016)<br/>Fertigung des <i>Milan SL</i> in<br/>Rumänien bei Velomobiel.ro> ];
	raederwerk_milansl_mk4 [ label=<<b>Räderwerk</b> (2017)<br/><i>Milan SL MK4</i><br/>Carbonmast, Innegra,<br/>Wartungsklappe> ];
	raederwerk_milan_mk5 [ label=<<b>Räderwerk</b> (2019)<br/><i>Milan GT MK5 + SL MK5</i><br/>einseitige Carbon-Schwinge> ];
	buckbesch_milan [ label=<<b>Jens Buckbesch</b> (2020)<br/>trennt sich von Räderwerk> ];
	buckbesch_buelk [ label=<<b>Jens Buckbesch</b> (2021)<br/>entwickelt mit Eggert Bülk<br/>das <i>Bülk MK1</i>> ];
	beyss_evo [ label=<<b>Beyss Leichtfahrzeuge</b> (2009)<br/>entwickelt <i>Go-One Evo</i>> ];
	beyss_evor [ label=<<b>Beyss Leichtfahrzeuge</b> (2010)<br/>Daniel Fenn will <i>Go-One Evo</i><br/>verbessern, wird angestellt,<br/>entwickelt <i>Evo-R</i>> ];
	beyss_evok [ label=<<b>Beyss Leichtfahrzeuge</b> (2011)<br/>Daniel Fenn entwickelt <i>Evo-K</i><br/><i>Go-One Evo</i> eingestellt> ];
	beyss_evoks [ label=<<b>Beyss Leichtfahrzeuge</b> (2012)<br/>Daniel Fenn entwickelt <i>Evo-Ks</i><br/>Herstellung des <i>Evo-R</i> eingestellt> ];
	intercitybike_df [ label=<<b>InterCityBike</b> (2014)<br/>Ymte Sijbrandij trennt<br/>sich von Velomobiel,<br/>gründet InterCityBike,<br/>Serienfertigung <i>DF</i><br/>bei Velomobiel.ro beginnt> ];
	intercitybike_dfxl [ label=<<b>InterCityBike</b> (2015)<br/>Daniel Fenn<br/>entwickelt <i>DF XL</i><br/> aus dem <i>DF</i>> ];
	intercitybike_mango [ label=<<b>InterCityBike</b> (2022)<br/>übernimmt Drymer-Inventar,<br/>liefert Ersatzteile und wartet<br/><i>Mango</i> und <i>Hilgo</i>> ];
	dfenn_alpha7 [ label=<<b>Daniel Fenn</b> (2017)<br/>Trennung von InterCityBike,<br/>entwickelt und fertigt<br/>das <i>Alpha 7</i>> ];
	velomobielro_alpha7ro [ label=<<b>Velomobiel.ro</b> (2018)<br/>übernimmt Fertigung<br/>des <i>Alpha 7</i>> ];
	dfenn_after7 [ label=<<b>Daniel Fenn</b> (2019)<br/>entwickelt und fertigt<br/>das <i>After 7</i>> ];
	dfenn_alpha9 [ label=<<b>Daniel Fenn</b> (2021)<br/>entwickelt das <i>Alpha 9</i> und<br/>daraus abgeleitet das <i>M 9</i>> ];
	velomobileworld [ label=<<b>Velomobile World</b> (2020)<br/>Umbenennung von <i>Velomobiel.ro</i><br/>übernimmt <i>Milan GT</i> und <i>Milan SL</i><br/>Milane heißen jetzt <i>MK6</i>> ];
	velomobileworld_milan_mk7_alpha72 [ label=<<b>Velomobile World</b> (2021)<br/><i>Milan MK7</i>: DF-Schwinge,<br/>Radkasten + Sitzabstützung neu<br/>entwickelt von Jens Buckbesch;<br/><i>Alpha 7</i>: Weiterentwicklung<br/>zu <i>Alpha 7.2</i>> ];
	velomobileworld_alpha9 [ label=<<b>Velomobile World</b> (2022)<br/>Fertigung <i>Alpha 9</i>, <i>M 9</i><br/>und <i>Bülk MK1</i>> ];
	veloxiter_sunrider [ label=<<b>Veloxiter</b> (2018)<br/>lizenziert <i>Sunrider</i> und<br/>übernimmt die Formen> ];
	vih_evor [ label=<<b>Velomobile<br/>in Hessen</b> (2020)<br/>übernimmt <i>Go-One Evo-R</i>> ];
	veloxiter_sr3 [ label=<<b>Veloxiter</b> (2022)<br/>Entwicklung des <i>SR3</i> aus<br/><i>Sunrider</i> + <i>Sunrider Quad</i>> ];
	sorensen_podbike [ label=<<b>Per Hassel Sørensen</b><br/>Entwicklung des <i>Podbike</i>,<br/>aus Erfahrungen<br/>mit <i>Alleweder A4</i>> ];
	podbike_podbike [ label=<<b>Podbike</b> (2016)<br/>Sørensen gründet<br/>Firma Podbike> ];
	podbike_frikar [ label=<<b>Podbike</b> (2020)<br/>Umbenennung des<br/><i>Podbike</i> in <i>Frikar</i>> ];
	velomobilebzh_duoquest [ label=<<b>velomobile.bzh</b> (2021)<br/>Denez Bodennec beginnt<br/>Serienfertigung des <i>DuoQuest</i>> ];

	// Leitra
	leitra_rasmussen -> leitra_bikerevolution -> leitra_future;

	// Alleweder
	verhees_alleweder -> flevo_vrielink -> flevo_bausatz -> flevo_allert_theo_ymte -> flevo_c_alleweder -> flevo_allert_quest -> flevo_alleweder_ende;
	verhees_alleweder -> verhees_alleweder_verkauf -> pluimers_alleweder -> alligt_alleweder_a3;
	verhees_alleweder_verkauf -> alligt_alleweder_a3 -> alligt_alleweder_a4 -> alligt_alleweder_a6 -> alligt_alleweder_a7 -> alligt_alleweder_a8_sunrider -> alligt_sunrider2 -> alligt_sunrider_ende -> alligt_alleweder_a4_ende;
	alligt_sunrider_ende -> akkurad_a6;
	flevo_alleweder_ende -> usa_alleweder -> usa_alleweder_ende;
	alligt_alleweder_a3 -> usa_alleweder [ style="dashed" weight="-1" ];
	lohmeyer_a4_45 -> lohmeyer_akkurad -> akkurad_wechsel -> akkurad_a6 -> akkurad_galoppe -> akkurad_future;
	flevo_alleweder_ende -> pluimers_alleweder [ style="dashed" weight="-1" ];
	htempelman -> flevo_c_alleweder [ style="dashed" weight="-1" ];
	kaczmarek_karosserien -> alligt_sunrider2 [ style="dashed" weight="-1" ];
	kaczmarek_karosserien -> alligt_alleweder_a6 [ style="dashed" weight="-1" ];
	kaczmarek_karosserien -> alligt_alleweder_a7 [ style="dashed" weight="-1" ];
	lohmeyer_a4_45 -> alligt_alleweder_a4 [ style="dashed" weight="-1" ];
	lohmeyer_akkurad -> alligt_alleweder_a6 [ style="dashed" weight="-1" ];

	// Versatile/Orca
	htempelman -> tempelman_limit -> flevo_tempelman -> tempelman_limit_ende -> tempelman_versatile -> tempelman_versatile_ende -> flevo_orca -> velodk_orca -> flevo_orca_ro -> flevo_orca_ende;
	flevo_allert_quest -> tempelman_limit;
	flevo_alleweder_ende -> flevo_versatile -> flevo_tempelman;
	flevo_versatile -> flevo_orca;

	// WAW
	htempelman -> walle_tempelman -> walle_waw -> fietser_waw -> katanga_waw -> katanga_waw2014 -> katanga_waw2016 -> katanga_future;
	flevo_allert_quest -> walle_tempelman [ style="dashed" weight="-1" ];

	// Cab-Bike
	kaczmarek_karosserien -> kaczmarek_road_hawk -> cab_bike_pima;
	cab_bike -> cab_bike_alleweder -> cab_bike_krieger -> cab_bike_ende -> cab_bike_pima -> cab_bike_future;
	flevo_c_alleweder -> cab_bike_alleweder;
	kaczmarek_karosserien -> cab_bike_krieger [ style="dashed" weight="-1" ];

	// Velomobiel: Quest, Strada, Quest XS, Quattrovelo, Snoek, DuoQuest
	flevo_allert_quest -> js_fiets -> velomobiel_quest -> velomobiel_mango -> velomobiel_quest26 -> velomobiel_strada -> velomobiel_wijnen -> velomobiel_duoquest -> velomobiel_carbon -> velomobiel_quest_dfenn -> velomobiel_questxs -> velomobiel_strada_df -> velomobiel_quattrovelo -> velomobiel_quattroveloplus -> velomobiel_gfk_ende -> velomobiel_snoek -> velomobiel_snoekl_quatrevelo -> velomobiel_future;
	beyss_evok -> velomobiel_quest_dfenn [ style="dashed" weight="-1" ];
	velomobiel_duoquest -> velomobilebzh_duoquest -> velomobilebzh_future;

	// Mango
	velomobiel_mango -> lieben_mango -> sinner_mango -> sinner_mangoplus -> sinner_mangosport -> drymer_mango -> drymer_hilgo -> drymer_ende -> intercitybike_mango;

	// Milan
	velomobiel_mango -> buckbesch_buelk_milan [ style="dashed" weight="-1" ];
	buckbesch_buelk_milan -> raederwerk_milan_mk1 -> raederwerk_milansl_mk2 -> raederwerk_milansr -> schleicher_milan -> raederwerk_milan42 -> raederwerk_milansl_mk3 -> raederwerk_milansl_ro -> raederwerk_milansl_mk4 -> raederwerk_milan_mk5 -> velomobileworld;
	raederwerk_milan_mk5 -> buckbesch_milan -> buckbesch_buelk -> buckbesch_future;
	buckbesch_milan -> velomobileworld_milan_mk7_alpha72 [ style="dashed" weight="-1" ];
	buckbesch_buelk -> velomobileworld_alpha9;

	// Sunrider
	wijma_aerorider -> aerorider_bv -> aerorider_sunrider -> sunrider_sunrider -> alligt_alleweder_a8_sunrider;
	alligt_sunrider_ende -> veloxiter_sunrider -> veloxiter_sr3 -> veloxiter_future;
	akkurad_a6 -> veloxiter_sunrider;
	kaczmarek_karosserien -> aerorider_bv [ style="dashed" weight="-1" ];
	kaczmarek_karosserien -> sunrider_sunrider [ style="dashed" weight="-1" ];

	// Go-One
	beyss_quest -> velomobiel_mango [ style="dashed" weight="-1" ];
	beyss_quest -> beyss_goone -> beyss_evo -> beyss_evor -> beyss_evok -> beyss_evoks -> vih_evor -> vih_future;

	// InterCityBike
	velomobiel_strada_df -> intercitybike_df -> intercitybike_dfxl -> intercitybike_mango -> intercitybike_future;

	// Daniel Fenn
	beyss_evoks -> velomobielro_dfenn;
	intercitybike_dfxl -> dfenn_alpha7 -> velomobielro_alpha7ro -> dfenn_after7 -> dfenn_alpha9 -> dfenn_future;
	dfenn_alpha9 -> velomobileworld_alpha9;

	// Velomobiel.ro/Velomobile World
	velomobiel_questxs -> velomobielro_dfenn -> velomobielro -> velomobielro_alpha7ro -> velomobileworld -> velomobileworld_milan_mk7_alpha72 -> velomobileworld_alpha9 -> velomobileworld_future;
	velomobiel_quattrovelo -> velomobielro [ style="dashed" weight="-1" ];
	intercitybike_dfxl -> velomobielro [ style="dashed" weight="-1" ];

	// Podbike
	sorensen_podbike -> podbike_podbike -> podbike_frikar -> podbike_future;
	alligt_alleweder_a4 -> sorensen_podbike [ style="dashed" weight="-1" ];
	alligt_sunrider_ende -> podbike_podbike [ style="dashed" weight="-1" ];

	//// RANKS
}

// Sources:
// https://www.velomobilforum.de/forum/index.php?threads/verbindungen-zwischen-velomobil-herstellern.43733/post-692868 (text below)
// https://www.velomobilforum.de/forum/index.php?threads/entscheidungskriterien-fuer-velomobile.58647/post-1171738
// https://www.velomobilforum.de/forum/index.php?threads/verbindungen-zwischen-velomobil-herstellern.43733/post-1205877
// https://www.velomobilforum.de/forum/index.php?threads/verbindungen-zwischen-velomobil-herstellern.43733/post-1206066
// http://alleweder.jp-web.de/index.php?page=models&lang=de
// http://www.apex-portal.com/ecosolutions/analysederexergie/mobile_anwendungen_2007_1.php
// https://www.velomobilforum.de/forum/index.php?threads/evo-r-geht-in-serie.24418/post-294891
// https://www.velomobilforum.de/forum/index.php?threads/weltrekordfahrzeug-milan-sl-geht-in-serie.24937/
// https://www.miwik.de/?p=5603
// https://www.velomobilforum.de/forum/index.php?threads/verbindungen-zwischen-velomobil-herstellern.43733/post-1206000
// https://www.velomobilforum.de/forum/index.php?threads/mein-milan-puenktlich-zu-weihnachten.47285/#post-786933
// https://www.katanga.eu/
// http://alleweder086.blogspot.com/2007/12/alleweder-historie.html
// https://velomobileseminars.online/wp-content/uploads/5th-Velomobile-Seminar-Germersheim-2004-partial.pdf
// https://www.ligfietsers.be/forum/viewtopic.php?t=9291
// https://www.velomobiel.nl/mango/
// https://www.ligfiets.net/news/1821/velomobielproducent-opent-deuren-in-groningen.html
// https://newatlas.com/aerorider-fully-enclosed-electric-assist-bicycle/1811/
// http://flevo.de/files/Newsletter04_2019_kl.pdf
// https://radmarkt.de/nachrichten/flevobike-orca-komplett-ueberarbeitet
// http://flevo.de/files/Newsletter06_2017_kl.pdf
// https://www.ligfiets.net/news/5139/flevobike-velomobiel-ontwikkelingen.html
// https://www.ligfiets.net/product/bike/502/mango-2.html
// http://www.bentrideronline.com/?p=3136
// https://issuu.com/encycleopedia/docs/e7_full
// https://de.ligfiets.net/news/3675/nieuw-velomobiel-prototype-van-go-one-fabrikant-beyss.html
// https://de.ligfiets.net/news/4297/is-een-go-one-evo-k-gewoonweg-te-groot-en-te-traag-voor-u.html
// https://de.ligfiets.net/news/4386/willie-wortel-werkt-niet-meer-voor-beyss.html
// https://de.ligfiets.net/news/2439/sunrider-levert-de-eerste-exemplaren-uit.html
// https://www.velomobilforum.de/forum/index.php?threads/verbindungen-zwischen-velomobil-herstellern.43733/post-1206261
// https://www.miwik.de/?p=5603#lg=1&slide=18
// https://www.miwik.de/?p=5953#lg=1&slide=4
// https://www.velomobilforum.de/forum/index.php?threads/die-entwicklung-des-milan-sl-mk4.54250/post-989052
// https://www.velomobilforum.de/forum/index.php?threads/der-hawk-ist-da.43706/
// https://www.katanga.eu/news/page/3/
// https://leitra.dk/
// https://bike-revolution.at/de/leitra-avancee
// https://www.velomobilforum.de/forum/index.php?threads/verbindungen-zwischen-velomobil-herstellern.43733/post-1208642
// https://www.velomobilforum.de/forum/index.php?threads/verbindungen-zwischen-velomobil-herstellern.43733/post-1208763
// http://en.velomobiel.nl/nieuws/108/nieuwe-prijslijsten-velomobielen.html
// http://en.velomobiel.nl/nieuws/29/quest-en-strada-in-carbon.html
// http://en.velomobiel.nl/nieuws/25/nieuwe-strada-bodies-zijn-aangekomen.html
// http://en.velomobiel.nl/nieuws/64/we-hebben-onze-lakafwerking-verbeterd.html
// https://de.ligfiets.net/news/5102/innegra-toegepast-bij-productie-quest.html
// http://web.archive.org/web/20150103195356/http://www.akkurad.com/html/produkte-alleweder.html
// https://www.velomobilforum.de/forum/index.php?threads/aenderungen-bei-den-milan-produkten.60052/
// https://www.velomobilforum.de/forum/index.php?threads/1-2-3-der-milan-gt-mk5-schluepft-aus-dem-ei.57154/post-1168532
// https://www.velomobiel.nl/orderboek/index.php#productie
// https://www.velomobileworld.com/de/mk7-einfuhrung/
// https://www.facebook.com/1610733606/posts/10222945377255508
// https://www.velomobilforum.de/forum/index.php?threads/velomobil-milan-schluepft-aus-dem-ei.1156/#post-9756
// https://www.velomobilforum.de/forum/index.php?threads/milan-baufotos.1260/#post-10906
// http://velomobiles.blogspot.com/2012/03/milan-velomobile-coming-to-north.html
// https://www.velomobilforum.de/forum/index.php?threads/verbindungen-zwischen-velomobil-herstellern.43733/#post-1247698
// https://www.velomobilforum.de/forum/index.php?threads/rolltest-elfershausen-am-28-12-2013.35700/#post-524082
// http://drymer.nl/ + https://www.velomobilforum.de/forum/index.php?threads/geschaeftsaufgabe-drymer-sinnerbikes-produktionsstop-fuer-mango-und-hilgo.64894/
// https://www.velomobilforum.de/forum/index.php?threads/snoek-l-kommt.65014/
//
// Hallo,
//
// Ich will ein Versuch machen etwas über die Geschichte von das Velomobil in
// die Niederlande und die Hersteller und Verbindungen zu erzählen. Man konnte
// sogar ein Buch darüber schreiben, vielleicht später aber zum Anfange einige
// Fakten.
//
// Erstmal hat Student Werkzeugbau Bart Verhees das Alleweder entwickelt, erst
// als trike mit Verkleidung aus Alu Blech, später mit Selbstragende Karosse.
//
// Johan Vrielink hat mit Flevobike als Zusammenarbeit die Alleweder weiter
// Entwickelt und damit die “365 Tage Fiets” preis gewonnen, damals hfl 25000.
// Johan und Bart haben sich aber getrennt und verabredet das Flevobike die
// Alleweder als Bausatz und Bart als Komplettes Fahrzeug vermarkten könnte.
//
// Bart könnte aber nach etwas 10 gebaute Fahrzeuge eine bessere Arbeit bekommen
// aber Flevobike hat viel Erfolg gehabt mit dem Bausatz und etwas 500 Stuck
// verkauft.
//
// In die “Alleweder” zeit (rund 1994) sind Allert Jacobs, Theo van Andel und
// Ymte Sijbrandij auch zu die Firma Flevobike zugetritten. Allert hat in 1996
// das C-Alleweder entwickelt, Harm Tempelman damals Hersteller von die GFK
// sitze für die Flevobike 2-Räder hat die Karossen gebaut. Die C-Alleweder war
// nicht gemeint für Serienherstellung, aufwendig zu bauen. Allert meinte auch
// das die Luftwiederstand erheblich senken könnte und hat das Quest entwickelt.
// Rund die zeit hat auch Frederik van de Walle ein Praxis gemacht bei Tempelman
// und ist er inspiriert von Allert sein Quest Projekt, davon ist in
// Zusammenarbeit mit Dries Callebaut das WAW entstanden. Cab-bike hatte damals
// das Idee das velomobile mit ein gemeinsam “Plattform’ gebaut werden sollen,
// und hat dabei mit Zustimmung das untere teil vom C-Alleweder mit Antrieb und
// Federbeine/Schwinge übernommen. Flevobike und Spater Velomobiel.nl hat damals
// auch Teile für das cab bike geliefert.
//
// Mit das Quest haben Allert/Ymte und Flevobike sich getrennt und in1999 J&S
// Fietsdiensten gegründet. Tempelman hat das C-Alleweder weiter produziert,
// aber es dann Limit genannt.
//
// Das Quest war erfolgreich, und Theo von Andel ist auch eingetreten bei die
// Firma. Bei das Erste Velomobiltreffen in Giessen in 2001 haben Hersteller
// sich getroffen und verabredet das Wort “Velomobiel/Velomobile/Velomobiel” zu
// verbreiten. Wieder zu hause von das Treffen haben Allert und Ymte das gleich
// Praktiziert und ihre Firma seit dem “Velomobiel.nl” genannt. Spaeter ist das
// Wort "Velomobiel" ein offizielles Niederlandisches Wort geworden. Neben das
// Quest ist in 2002 auch das Mango entwickelt, das Idee war ein bisschen
// Alltagstauglichkeit zu gewinnen, Kompakter und kleinere Wendekreis wie das
// Quest und es sollte auch verfügbar sein für Euro 4500.
//
// Jens Buckbesch hat sich damals auch mal ein (gebrauchte) Quest gekauft und
// das hat ihm inspiriert zum Milan. Velomobiel.nl hat von Anfang an Federbeine
// und Lenker geliefert für das Milan.
//
// Flevobike hat so rund 2000 die Letzte Alleweder geliefert und wollte sich
// richten auf Prototypenbau für andere Hersteller, damals war Giant ein Kunde.
// Aber Arjan, Andre und Erwin Vrielink wollten doch wieder das Velomobiel
// verbessern und wollten etwas machen geeignet für grossere stuckzahlen, neue
// Kurstoffverwendungen und ansprechendes Design, das Versatile.
//
// In 2000 hat Harm Tempelman mit seine Frau Dineke und Sohn Gerrit das
// Liegeradladen und die Herstellung von Flevo bike und Trike von Flevobike
// übernommen und nach einige Zeit auch die Montage von das Versatile, Flevobike
// hat aber immer noch Karossen und Teile geliefert. Gerrit hat das Geschäft von
// seine Eltern übernommen und hat Aufgehört mit das Versatile zu montieren.
// Flevobike hat das Versatile nochmal verbessert und jetzt heißt das “Orca”
// Flevobike macht wieder Karossen und Teile aber “Velomobil.dk” assembliert es
// heute.
//
// Irgendwann hat Bart Verhees auch wieder Alleweders gebaut aber auch wieder
// damit aufgehört, und Nico Pluimers hat das Modell übernommen. Er hat dafür
// Raum gemietet bei Alligt. Wann Nico kein Lust mehr hatte hat Alligt das
// Übernommen und das A3 entwickelt und weiter noch A4,5,6 7 und 8.
//
// In zusammen Arbeit mit Optima Liegeräder ist damals auch das Aerorider
// entwickelt. Es sollte in grossere stuckzahlen mit E-Motor produziert werden.
// Wann das erst nicht ging ist aus die Aerorider das Sunrider entwickelt, Kopf
// draussen Design und ohne Motor. Das Erfolg war nicht wie gewunchst und Alligt
// hat das Fahrzeug übernommen und weiter entwickelt bis das heutige 4 Rad.
//
// Das Quest war so erfolgreich das es (theoretische) Lieferzeiten von 5 Jahren
// gab. Velomobiel.nl wollte erst aber nicht Leute anstellen und hat versucht
// auf andere weise die Produktion zu vergrossen. Damals hat Harry Lieben sich
// gemeldet um Mango’s in sein Wohnort Groningen zu montieren. Nach ein Jahr
// wollte Harry eigentlich nicht alleine arbeiten und hat Sinner das übernommen,
// Formen und Modell Mango von Velomobiel.nl gekauft und Harry angestellt.
// Sinner hat auch noch das Mango Plus entwickelt und auch das Mango weiter
// entwickelt, hat aber finanzielle Probleme bekommen und Drymer hat das
// geschafft gekauft. Drymer hat auch das Neige Dreirad “Drymer” gekauft, das
// erst angefangen ist als “Mitka” , ein Projekt von Nike und Gazelle.
//
// Firma Beyss hat erst die Quest und Mango Karossen gebaut und selber das
// Go-one produziert. Flevobike hat erst Allewederteile wie Federbeine und
// Lenker für das Go-one Produziert, das hat Velomobiel.nl später übernommen.
// Allert hat noch mal die Lenkgeometrie für das Go-one Evo entwickelt. Damals
// ist auch Daniel Fenn bei Beyss vorbeigekommen und hat aus das Go-one Evo-R, K
// und S entwickelt. Velomobiel hat immer Teile wie Federbeine, Lenker und
// Trettlagergehause geliefert.
//
// Velomobiel hat rund 2005 das Quest weiter entwickelt mit 26” Hinterrad und
// direkte antrieb. In 2007 ist daneben das Strada entwickelt mit gleich
// Technik. Velomobiel.nl ist “gezwungen” wegen große nachfrage doch mehr
// Questen zu bauen und hat neue Mitarbeiter geworben. Eva Navratilova ist
// gefracht ein 2e Karossenhersteller zu suchen und hat Herr Pavlik aus Slowakei
// gefunden. Velomobiel.nl hat Jan Wijnen angestellt, er is spatter auch zu
// Firma zu getreten.
//
// Um schneller und Flexibler Produzieren zu können hat Jan vorgeschlagen ein
// Firma in Rumänien zu gründen, er hatte dort mit seinem Frau 3 Jahre
// gearbeitet und wollte gerne was Anfangen. Die 4 Inhaber von Velomobiel.nl
// haben Velomobiel.ro gegründet und Daniel Fenn gefragt die neue mit Arbeiter
// die Kunst von Kunststoffverarbeitung zu lernen.
//
// Daniel hat dann auch das DF entwickelt. Alles hat sich aber nicht geinicht
// und Ymte hat sich mit Daniel getrennt von Velomobiel.nl und Intercitybike
// gegründet. Neben das DF ist dann auch das DF-XL entwickelt.
//
// Das ganze Idee von Rumänien mit die 4 Inhaber von Velomobiel.nl hat dann
// nicht mehr Funktioniert, Jan Wijnen hat dann die Teilen von Ymte, Theo und
// Allert übernommen.
//
// Velomobiel.ro produziert dann heute Quest (XS) und Strada, DF(XL) , DF (und
// bald auch Quest) Hauben, Challenge GFK sitze, Federbeine und Teile für Milan,
// Karossen für Alligt, Federbeine für Mango und bald auch das Quattro Velo von
// Velomobiel.nl. Alligt hat sich auch spezialisiert in Teile z.b. Kettenrollen
// für Quest, Mango, DF, Trettlager Gehäuse für DF, Milan und Mango und jetzt
// kommen auch 20” Räder aus GFK. Pavlik macht jetzt Kunststoff arbeiten für das
// WAW.
//
// In Kanada gibt es Bluevelo, die hat sich damals ein Lizenz gekauft Questen zu
// bauen, haben Karossen gebaut und montiert. Aber das Werk in Velomobiel.ro hat
// das wieder übernommen weil die das effizienter können.
//
// Lange Geschichte und vielleicht bin ich was vergessen, haben auch nicht alle
// Jahr zahlen im Kopf und es gibt noch soviel mehr zu erzählen, auch über die
// Menchen und Ideen dahinten…..
//
// Gruesse, Ymte
